Circuit_Cave/The_only_true_way/challenge.vcd
$comment Generated by nMigen $end
$date 2021-08-07 21:47:22.262500 $end
$timescale 100 ps $end
$scope module top $end
$var wire 6 0 adr $end
$var wire 8 2 mem_out $end
$var wire 1 3 mem_bitsel $end
$var wire 1 4 out $end
$var wire 8 5 data $end
$var wire 8 6 counter_addr $end
$var wire 8 7 dat_r $end
$var wire 3 9 counter_bitsel $end
$var wire 1 a pos_clk $end
$var wire 8 c output $end
$var wire 1 d pos_rst $end
$var wire 8 e shiftreg $end
$scope module decoder $end
$var wire 8 b output $end
$var wire 8 f shiftreg $end
$upscope $end
$scope module mem $end
$var wire 6 1 adr $end
$var wire 8 8 dat_r $end
$var wire 6 11 data_r_addr $end
$var wire 8 12 data_r_data $end
$scope module r $end
$var wire 6 10 data_r_addr $end
$var wire 8 13 data_r_data $end
$var wire 1 14 clk $end
$var wire 1 15 rst $end
$var wire 6 16 latch_addr $end
$var wire 8 17 memory(0) $end
$var wire 8 18 memory(1) $end
$var wire 8 19 memory(2) $end
$var wire 8 1a memory(3) $end
$var wire 8 1b memory(4) $end
$var wire 8 1c memory(5) $end
$var wire 8 1d memory(6) $end
$var wire 8 1e memory(7) $end
$var wire 8 1f memory(8) $end
$var wire 8 20 memory(9) $end
$var wire 8 21 memory(10) $end
$var wire 8 22 memory(11) $end
$var wire 8 23 memory(12) $end
$var wire 8 24 memory(13) $end
$var wire 8 25 memory(14) $end
$var wire 8 26 memory(15) $end
$var wire 8 27 memory(16) $end
$var wire 8 28 memory(17) $end
$var wire 8 29 memory(18) $end
$var wire 8 2a memory(19) $end
$var wire 8 2b memory(20) $end
$var wire 8 2c memory(21) $end
$var wire 8 2d memory(22) $end
$var wire 8 2e memory(23) $end
$var wire 8 2f memory(24) $end
$var wire 8 30 memory(25) $end
$var wire 8 31 memory(26) $end
$var wire 8 32 memory(27) $end
$var wire 8 33 memory(28) $end
$var wire 8 34 memory(29) $end
$var wire 8 35 memory(30) $end
$var wire 8 36 memory(31) $end
$var wire 8 37 memory(32) $end
$var wire 8 38 memory(33) $end
$var wire 8 39 memory(34) $end
$var wire 8 3a memory(35) $end
$var wire 8 3b memory(36) $end
$var wire 8 3c memory(37) $end
$var wire 8 3d memory(38) $end
$var wire 8 3e memory(39) $end
$var wire 8 3f memory(40) $end
$var wire 8 40 memory(41) $end
$var wire 8 41 memory(42) $end
$var wire 8 42 memory(43) $end
$var wire 8 43 memory(44) $end
$var wire 8 44 memory(45) $end
$var wire 8 45 memory(46) $end
$var wire 8 46 memory(47) $end
$var wire 8 47 memory(48) $end
$var wire 8 48 memory(49) $end
$var wire 8 49 memory(50) $end
$var wire 8 4a memory(51) $end
$var wire 8 4b memory(52) $end
$var wire 8 4c memory(53) $end
$var wire 8 4d memory(54) $end
$upscope $end
$upscope $end
$upscope $end
$enddefinitions $end
#0
$dumpvars
b0 0
b0 1
b1010000 2
03
04
b0 5
b0 6
b1010000 7
b1010000 8
b0 9
0a
b0 b
b0 c
0d
b0 e
b0 f
b0 10
b0 11
b1010000 12
b1010000 13
014
015
b0 16
b1010000 17
b1010000 18
b111100 19
b1110111 1a
b11010 1b
b100111 1c
b1111 1d
b110011 1e
b110110 1f
b111 20
b110010 21
b111 22
b1111010 23
b101110 24
b1111101 25
b1010010 26
b1110 27
b110110 28
b11010 29
b111111 2a
b1110 2b
b110110 2c
b100111 2d
b1111101 2e
b11111 2f
b1111 30
b111 31
b1111010 32
b101110 33
b1111101 34
b10110 35
b1010111 36
b101111 37
b1010010 38
b110 39
b1111010 3a
b1111101 3b
b111 3c
b1111 3d
b1111101 3e
b1111 3f
b11111 40
b10110 41
b100111 42
b110110 43
b1111101 44
b10110 45
b110 46
b111111 47
b100111 48
b110110 49
b111010 4a
b11111 4b
b1011010 4c
b1011111 4d
$end
#5000
1a
114
b1 9
#10000
0a
014
#15000
1a
114
b10 9
#20000
0a
014
#24999
1a
114
b11 9
#29999
0a
014
#34999
1a
114
b100 9
13
#40000
0a
014
b10000000 e
b10000000 f
b10000000 c
b10000000 b
b10000000 5
#45000
1a
114
b101 9
03
#50000
0a
014
b1000000 e
b1000000 f
b1000 c
b1000 b
b1000 5
#55000
1a
114
b110 9
13
#60000
0a
014
b10100000 e
b10100000 f
b10000010 c
b10000010 b
b10000010 5
#65000
1a
114
b1 6
b111 9
b1 1
b1 0
03
b1 10
b1 11
#70000
0a
014
14
b1010000 e
b1010000 f
b1001000 c
b1001000 b
b1001000 5
#75000
1a
114
04
b1 16
b0 9
#80000
0a
014
b101000 e
b101000 f
b110 c
b110 b
b110 5
#85000
1a
114
b1 9
#90000
0a
014
b10100 e
b10100 f
b1010000 c
b1010000 b
b1010000 5
#95000
1a
114
b10 9
#100000
0a
014
b1010 e
b1010 f
b100100 c
b100100 b
b100100 5
#105000
1a
114
b11 9
#110000
0a
014
b101 e
b101 f
b10001 c
b10001 b
b10001 5
#115000
1a
114
b100 9
13
#120000
0a
014
b10000010 e
b10000010 f
b10100000 c
b10100000 b
b10100000 5
#125000
1a
114
b101 9
03
#130000
0a
014
b1000001 e
b1000001 f
b1001 c
b1001 b
b1001 5
#135000
1a
114
b110 9
13
#140000
0a
014
b10100000 e
b10100000 f
b10000010 c
b10000010 b
b10000010 5
#145000
1a
114
b10 6
b111 9
b10 1
b10 0
03
b10 10
b10 11
#150000
0a
014
14
b1010000 e
b1010000 f
b1001000 c
b1001000 b
b1001000 5
#155000
1a
114
04
b10 16
b0 9
b111100 12
b111100 13
b111100 8
b111100 7
b111100 2
#160000
0a
014
b101000 e
b101000 f
b110 c
b110 b
b110 5
#165000
1a
114
b1 9
#170000
0a
014
b10100 e
b10100 f
b1010000 c
b1010000 b
b1010000 5
#174999
1a
114
b10 9
13
#179999
0a
014
b10001010 e
b10001010 f
b10100100 c
b10100100 b
b10100100 5
#184999
1a
114
b11 9
#189999
0a
014
b11000101 e
b11000101 f
b10011001 c
b10011001 b
b10011001 5
#194999
1a
114
b100 9
#199999
0a
014
b11100010 e
b11100010 f
b10101010 c
b10101010 b
b10101010 5
#204999
1a
114
b101 9
#209999
0a
014
b11110001 e
b11110001 f
b11001011 c
b11001011 b
b11001011 5
#214999
1a
114
b110 9
03
#219999
0a
014
b1111000 e
b1111000 f
b1001110 c
b1001110 b
b1001110 5
#224999
1a
114
b11 6
b111 9
b11 1
b11 0
b11 10
b11 11
#229999
0a
014
14
b111100 e
b111100 f
b1010110 c
b1010110 b
b1010110 5
#234999
1a
114
04
b11 16
b0 9
b1110111 12
b1110111 13
b1110111 8
b1110111 7
b1110111 2
13
#239999
0a
014
b10011110 e
b10011110 f
b11110100 c
b11110100 b
b11110100 5
#244999
1a
114
b1 9
#249999
0a
014
b11001111 e
b11001111 f
b10111101 c
b10111101 b
b10111101 5
#254999
1a
114
b10 9
#259999
0a
014
b11100111 e
b11100111 f
b10111011 c
b10111011 b
b10111011 5
#264999
1a
114
b11 9
03
#269999
0a
014
b1110011 e
b1110011 f
b1101011 c
b1101011 b
b1101011 5
#274999
1a
114
b100 9
13
#279999
0a
014
b10111001 e
b10111001 f
b11000111 c
b11000111 b
b11000111 5
#284999
1a
114
b101 9
#289999
0a
014
b11011100 e
b11011100 f
b11011100 c
b11011100 b
b11011100 5
#294999
1a
114
b110 9
#299999
0a
014
b11101110 e
b11101110 f
b10111110 c
b10111110 b
b10111110 5
#304999
1a
114
b100 6
b111 9
b100 1
b100 0
03
b100 10
b100 11
#309999
0a
014
14
b1110111 e
b1110111 f
b1111011 c
b1111011 b
b1111011 5
#314999
1a
114
04
b100 16
b0 9
b11010 12
b11010 13
13
b11010 8
b11010 7
b11010 2
03
#319999
0a
014
b111011 e
b111011 f
b1100111 c
b1100111 b
b1100111 5
#324999
1a
114
b1 9
13
#329999
0a
014
b10011101 e
b10011101 f
b11010101 c
b11010101 b
b11010101 5
#334999
1a
114
b10 9
03
#339999
0a
014
b1001110 e
b1001110 f
b111100 c
b111100 b
b111100 5
#344999
1a
114
b11 9
13
#349999
0a
014
b10100111 e
b10100111 f
b10110011 c
b10110011 b
b10110011 5
#354999
1a
114
b100 9
#359999
0a
014
b11010011 e
b11010011 f
b11101001 c
b11101001 b
b11101001 5
#364999
1a
114
b101 9
03
#369999
0a
014
b1101001 e
b1101001 f
b1111 c
b1111 b
b1111 5
#374999
1a
114
b110 9
#379999
0a
014
b110100 e
b110100 f
b1010010 c
b1010010 b
b1010010 5
#384999
1a
114
b101 6
b111 9
b101 1
b101 0
b101 10
b101 11
#389999
0a
014
14
b11010 e
b11010 f
b1100100 c
b1100100 b
b1100100 5
#394999
1a
114
04
b101 16
b0 9
b100111 12
b100111 13
b100111 8
b100111 7
b100111 2
13
#399999
0a
014
b10001101 e
b10001101 f
b10010101 c
b10010101 b
b10010101 5
#404999
1a
114
b1 9
#409999
0a
014
b11000110 e
b11000110 f
b10111000 c
b10111000 b
b10111000 5
#414999
1a
114
b10 9
#419999
0a
014
b11100011 e
b11100011 f
b10101011 c
b10101011 b
b10101011 5
#424999
1a
114
b11 9
03
#429999
0a
014
b1110001 e
b1110001 f
b1001011 c
b1001011 b
b1001011 5
#434999
1a
114
b100 9
#439999
0a
014
b111000 e
b111000 f
b1000110 c
b1000110 b
b1000110 5
#444999
1a
114
b101 9
13
#449999
0a
014
b10011100 e
b10011100 f
b11010100 c
b11010100 b
b11010100 5
#454999
1a
114
b110 9
03
#459999
0a
014
b1001110 e
b1001110 f
b111100 c
b111100 b
b111100 5
#464999
1a
114
b110 6
b111 9
b110 1
b110 0
b110 10
b110 11
#469999
0a
014
14
b100111 e
b100111 f
b110011 c
b110011 b
b110011 5
#474999
1a
114
04
b110 16
b0 9
b1111 12
b1111 13
13
b1111 8
b1111 7
b1111 2
#479999
0a
014
b10010011 e
b10010011 f
b11100001 c
b11100001 b
b11100001 5
#484999
1a
114
b1 9
#489999
0a
014
b11001001 e
b11001001 f
b10001101 c
b10001101 b
b10001101 5
#494999
1a
114
b10 9
#499999
0a
014
b11100100 e
b11100100 f
b10011010 c
b10011010 b
b10011010 5
#504999
1a
114
b11 9
#509999
0a
014
b11110010 e
b11110010 f
b11101010 c
b11101010 b
b11101010 5
#514999
1a
114
b100 9
03
#519999
0a
014
b1111001 e
b1111001 f
b1001111 c
b1001111 b
b1001111 5
#524999
1a
114
b101 9
#529999
0a
014
b111100 e
b111100 f
b1010110 c
b1010110 b
b1010110 5
#534999
1a
114
b110 9
#539999
0a
014
b11110 e
b11110 f
b1110100 c
b1110100 b
b1110100 5
#544999
1a
114
b111 6
b111 9
b111 1
b111 0
b111 10
b111 11
#549999
0a
014
14
b1111 e
b1111 f
b110101 c
b110101 b
b110101 5
#554999
1a
114
04
b111 16
b0 9
b110011 12
b110011 13
13
b110011 8
b110011 7
b110011 2
#559999
0a
014
b10000111 e
b10000111 f
b10110001 c
b10110001 b
b10110001 5
#564999
1a
114
b1 9
#569999
0a
014
b11000011 e
b11000011 f
b10101001 c
b10101001 b
b10101001 5
#574999
1a
114
b10 9
03
#579999
0a
014
b1100001 e
b1100001 f
b1011 c
b1011 b
b1011 5
#584999
1a
114
b11 9
#589999
0a
014
b110000 e
b110000 f
b1000010 c
b1000010 b
b1000010 5
#594999
1a
114
b100 9
13
#599999
0a
014
b10011000 e
b10011000 f
b11000100 c
b11000100 b
b11000100 5
#604999
1a
114
b101 9
#609999
0a
014
b11001100 e
b11001100 f
b10011100 c
b10011100 b
b10011100 5
#614999
1a
114
b110 9
03
#619999
0a
014
b1100110 e
b1100110 f
b111010 c
b111010 b
b111010 5
#624999
1a
114
b1000 6
b111 9
b1000 1
b1000 0
b1000 10
b1000 11
#629999
0a
014
14
b110011 e
b110011 f
b1100011 c
b1100011 b
b1100011 5
#634999
1a
114
04
b1000 16
b0 9
b110110 12
b110110 13
13
b110110 8
b110110 7
b110110 2
03
#639999
0a
014
b11001 e
b11001 f
b1000101 c
b1000101 b
b1000101 5
#644999
1a
114
b1 9
13
#649999
0a
014
b10001100 e
b10001100 f
b10010100 c
b10010100 b
b10010100 5
#654999
1a
114
b10 9
#659999
0a
014
b11000110 e
b11000110 f
b10111000 c
b10111000 b
b10111000 5
#664999
1a
114
b11 9
03
#669999
0a
014
b1100011 e
b1100011 f
b101011 c
b101011 b
b101011 5
#674999
1a
114
b100 9
13
#679999
0a
014
b10110001 e
b10110001 f
b11000011 c
b11000011 b
b11000011 5
#684999
1a
114
b101 9
#689999
0a
014
b11011000 e
b11011000 f
b11001100 c
b11001100 b
b11001100 5
#694999
1a
114
b110 9
03
#699999
0a
014
b1101100 e
b1101100 f
b11110 c
b11110 b
b11110 5
#704999
1a
114
b1001 6
b111 9
b1001 1
b1001 0
b1001 10
b1001 11
#709999
0a
014
14
b110110 e
b110110 f
b1110010 c
b1110010 b
b1110010 5
#714999
1a
114
04
b1001 16
b0 9
b111 12
b111 13
b111 8
b111 7
b111 2
13
#719999
0a
014
b10011011 e
b10011011 f
b11100101 c
b11100101 b
b11100101 5
#724999
1a
114
b1 9
#729999
0a
014
b11001101 e
b11001101 f
b10011101 c
b10011101 b
b10011101 5
#734999
1a
114
b10 9
#739999
0a
014
b11100110 e
b11100110 f
b10111010 c
b10111010 b
b10111010 5
#744999
1a
114
b11 9
03
#749999
0a
014
b1110011 e
b1110011 f
b1101011 c
b1101011 b
b1101011 5
#754999
1a
114
b100 9
#759999
0a
014
b111001 e
b111001 f
b1000111 c
b1000111 b
b1000111 5
#764999
1a
114
b101 9
#769999
0a
014
b11100 e
b11100 f
b1010100 c
b1010100 b
b1010100 5
#774999
1a
114
b110 9
#779999
0a
014
b1110 e
b1110 f
b110100 c
b110100 b
b110100 5
#784999
1a
114
b1010 6
b111 9
b1010 1
b1010 0
b1010 10
b1010 11
#789999
0a
014
14
b111 e
b111 f
b110001 c
b110001 b
b110001 5
#794999
1a
114
04
b1010 16
b0 9
b110010 12
b110010 13
13
b110010 8
b110010 7
b110010 2
03
#799999
0a
014
b11 e
b11 f
b100001 c
b100001 b
b100001 5
#804999
1a
114
b1 9
13
#809999
0a
014
b10000001 e
b10000001 f
b10000001 c
b10000001 b
b10000001 5
#814999
1a
114
b10 9
03
#819999
0a
014
b1000000 e
b1000000 f
b1000 c
b1000 b
b1000 5
#824999
1a
114
b11 9
#829999
0a
014
b100000 e
b100000 f
b10 c
b10 b
b10 5
#834999
1a
114
b100 9
13
#839999
0a
014
b10010000 e
b10010000 f
b11000000 c
b11000000 b
b11000000 5
#844999
1a
114
b101 9
#849999
0a
014
b11001000 e
b11001000 f
b10001100 c
b10001100 b
b10001100 5
#854999
1a
114
b110 9
03
#859999
0a
014
b1100100 e
b1100100 f
b11010 c
b11010 b
b11010 5
#864999
1a
114
b1011 6
b111 9
b1011 1
b1011 0
b1011 10
b1011 11
#869999
0a
014
14
b110010 e
b110010 f
b1100010 c
b1100010 b
b1100010 5
#874999
1a
114
04
b1011 16
b0 9
b111 12
b111 13
b111 8
b111 7
b111 2
13
#879999
0a
014
b10011001 e
b10011001 f
b11000101 c
b11000101 b
b11000101 5
#884999
1a
114
b1 9
#889999
0a
014
b11001100 e
b11001100 f
b10011100 c
b10011100 b
b10011100 5
#894999
1a
114
b10 9
#899999
0a
014
b11100110 e
b11100110 f
b10111010 c
b10111010 b
b10111010 5
#904999
1a
114
b11 9
03
#909999
0a
014
b1110011 e
b1110011 f
b1101011 c
b1101011 b
b1101011 5
#914999
1a
114
b100 9
#919999
0a
014
b111001 e
b111001 f
b1000111 c
b1000111 b
b1000111 5
#924999
1a
114
b101 9
#929999
0a
014
b11100 e
b11100 f
b1010100 c
b1010100 b
b1010100 5
#934999
1a
114
b110 9
#939999
0a
014
b1110 e
b1110 f
b110100 c
b110100 b
b110100 5
#944999
1a
114
b1100 6
b111 9
b1100 1
b1100 0
b1100 10
b1100 11
#949999
0a
014
14
b111 e
b111 f
b110001 c
b110001 b
b110001 5
#954999
1a
114
04
b1100 16
b0 9
b1111010 12
b1111010 13
13
b1111010 8
b1111010 7
b1111010 2
03
#959999
0a
014
b11 e
b11 f
b100001 c
b100001 b
b100001 5
#964999
1a
114
b1 9
13
#969999
0a
014
b10000001 e
b10000001 f
b10000001 c
b10000001 b
b10000001 5
#974999
1a
114
b10 9
03
#979999
0a
014
b1000000 e
b1000000 f
b1000 c
b1000 b
b1000 5
#984999
1a
114
b11 9
13
#989999
0a
014
b10100000 e
b10100000 f
b10000010 c
b10000010 b
b10000010 5
#994999
1a
114
b100 9
#999999
0a
014
b11010000 e
b11010000 f
b11001000 c
b11001000 b
b11001000 5
#1004999
1a
114
b101 9
#1009999
0a
014
b11101000 e
b11101000 f
b10001110 c
b10001110 b
b10001110 5
#1014999
1a
114
b110 9
#1019999
0a
014
b11110100 e
b11110100 f
b11011010 c
b11011010 b
b11011010 5
#1024999
1a
114
b1101 6
b111 9
b1101 1
b1101 0
03
b1101 10
b1101 11
#1029999
0a
014
14
b1111010 e
b1111010 f
b1101110 c
b1101110 b
b1101110 5
#1034999
1a
114
04
b1101 16
b0 9
b101110 12
b101110 13
b101110 8
b101110 7
b101110 2
#1039999
0a
014
b111101 e
b111101 f
b1010111 c
b1010111 b
b1010111 5
#1044999
1a
114
b1 9
13
#1049999
0a
014
b10011110 e
b10011110 f
b11110100 c
b11110100 b
b11110100 5
#1054999
1a
114
b10 9
#1059999
0a
014
b11001111 e
b11001111 f
b10111101 c
b10111101 b
b10111101 5
#1064999
1a
114
b11 9
#1069999
0a
014
b11100111 e
b11100111 f
b10111011 c
b10111011 b
b10111011 5
#1074999
1a
114
b100 9
03
#1079999
0a
014
b1110011 e
b1110011 f
b1101011 c
b1101011 b
b1101011 5
#1084999
1a
114
b101 9
13
#1089999
0a
014
b10111001 e
b10111001 f
b11000111 c
b11000111 b
b11000111 5
#1094999
1a
114
b110 9
03
#1099999
0a
014
b1011100 e
b1011100 f
b1011100 c
b1011100 b
b1011100 5
#1104999
1a
114
b1110 6
b111 9
b1110 1
b1110 0
b1110 10
b1110 11
#1109999
0a
014
14
b101110 e
b101110 f
b110110 c
b110110 b
b110110 5
#1114999
1a
114
04
b1110 16
b0 9
b1111101 12
b1111101 13
b1111101 8
b1111101 7
b1111101 2
13
#1119999
0a
014
b10010111 e
b10010111 f
b11110001 c
b11110001 b
b11110001 5
#1124999
1a
114
b1 9
03
#1129999
0a
014
b1001011 e
b1001011 f
b101101 c
b101101 b
b101101 5
#1134999
1a
114
b10 9
13
#1139999
0a
014
b10100101 e
b10100101 f
b10010011 c
b10010011 b
b10010011 5
#1144999
1a
114
b11 9
#1149999
0a
014
b11010010 e
b11010010 f
b11101000 c
b11101000 b
b11101000 5
#1154999
1a
114
b100 9
#1159999
0a
014
b11101001 e
b11101001 f
b10001111 c
b10001111 b
b10001111 5
#1164999
1a
114
b101 9
#1169999
0a
014
b11110100 e
b11110100 f
b11011010 c
b11011010 b
b11011010 5
#1174999
1a
114
b110 9
#1179999
0a
014
b11111010 e
b11111010 f
b11101110 c
b11101110 b
b11101110 5
#1184999
1a
114
b1111 6
b111 9
b1111 1
b1111 0
03
b1111 10
b1111 11
#1189999
0a
014
14
b1111101 e
b1111101 f
b1011111 c
b1011111 b
b1011111 5
#1194999
1a
114
04
b1111 16
b0 9
b1010010 12
b1010010 13
13
b1010010 8
b1010010 7
b1010010 2
03
#1199999
0a
014
b111110 e
b111110 f
b1110110 c
b1110110 b
b1110110 5
#1204999
1a
114
b1 9
13
#1209999
0a
014
b10011111 e
b10011111 f
b11110101 c
b11110101 b
b11110101 5
#1214999
1a
114
b10 9
03
#1219999
0a
014
b1001111 e
b1001111 f
b111101 c
b111101 b
b111101 5
#1224999
1a
114
b11 9
#1229999
0a
014
b100111 e
b100111 f
b110011 c
b110011 b
b110011 5
#1234999
1a
114
b100 9
13
#1239999
0a
014
b10010011 e
b10010011 f
b11100001 c
b11100001 b
b11100001 5
#1244999
1a
114
b101 9
03
#1249999
0a
014
b1001001 e
b1001001 f
b1101 c
b1101 b
b1101 5
#1254999
1a
114
b110 9
13
#1259999
0a
014
b10100100 e
b10100100 f
b10010010 c
b10010010 b
b10010010 5
#1264999
1a
114
b10000 6
b111 9
b10000 1
b10000 0
03
b10000 10
b10000 11
#1269999
0a
014
14
b1010010 e
b1010010 f
b1101000 c
b1101000 b
b1101000 5
#1274999
1a
114
04
b10000 16
b0 9
b1110 12
b1110 13
b1110 8
b1110 7
b1110 2
#1279999
0a
014
b101001 e
b101001 f
b111 c
b111 b
b111 5
#1284999
1a
114
b1 9
13
#1289999
0a
014
b10010100 e
b10010100 f
b11010000 c
b11010000 b
b11010000 5
#1294999
1a
114
b10 9
#1299999
0a
014
b11001010 e
b11001010 f
b10101100 c
b10101100 b
b10101100 5
#1304999
1a
114
b11 9
#1309999
0a
014
b11100101 e
b11100101 f
b10011011 c
b10011011 b
b10011011 5
#1314999
1a
114
b100 9
03
#1319999
0a
014
b1110010 e
b1110010 f
b1101010 c
b1101010 b
b1101010 5
#1324999
1a
114
b101 9
#1329999
0a
014
b111001 e
b111001 f
b1000111 c
b1000111 b
b1000111 5
#1335000
1a
114
b110 9
#1340000
0a
014
b11100 e
b11100 f
b1010100 c
b1010100 b
b1010100 5
#1345000
1a
114
b10001 6
b111 9
b10001 1
b10001 0
b10001 10
b10001 11
#1350000
0a
014
14
b1110 e
b1110 f
b110100 c
b110100 b
b110100 5
#1355000
1a
114
04
b10001 16
b0 9
b110110 12
b110110 13
b110110 8
b110110 7
b110110 2
#1360000
0a
014
b111 e
b111 f
b110001 c
b110001 b
b110001 5
#1365000
1a
114
b1 9
13
#1370000
0a
014
b10000011 e
b10000011 f
b10100001 c
b10100001 b
b10100001 5
#1375000
1a
114
b10 9
#1380000
0a
014
b11000001 e
b11000001 f
b10001001 c
b10001001 b
b10001001 5
#1385000
1a
114
b11 9
03
#1390000
0a
014
b1100000 e
b1100000 f
b1010 c
b1010 b
b1010 5
#1395000
1a
114
b100 9
13
#1400000
0a
014
b10110000 e
b10110000 f
b11000010 c
b11000010 b
b11000010 5
#1405000
1a
114
b101 9
#1410000
0a
014
b11011000 e
b11011000 f
b11001100 c
b11001100 b
b11001100 5
#1415000
1a
114
b110 9
03
#1420000
0a
014
b1101100 e
b1101100 f
b11110 c
b11110 b
b11110 5
#1425000
1a
114
b10010 6
b111 9
b10010 1
b10010 0
b10010 10
b10010 11
#1430000
0a
014
14
b110110 e
b110110 f
b1110010 c
b1110010 b
b1110010 5
#1435000
1a
114
04
b10010 16
b0 9
b11010 12
b11010 13
b11010 8
b11010 7
b11010 2
#1440000
0a
014
b11011 e
b11011 f
b1100101 c
b1100101 b
b1100101 5
#1445000
1a
114
b1 9
13
#1450000
0a
014
b10001101 e
b10001101 f
b10010101 c
b10010101 b
b10010101 5
#1455000
1a
114
b10 9
03
#1460000
0a
014
b1000110 e
b1000110 f
b111000 c
b111000 b
b111000 5
#1465000
1a
114
b11 9
13
#1470000
0a
014
b10100011 e
b10100011 f
b10100011 c
b10100011 b
b10100011 5
#1475000
1a
114
b100 9
#1480000
0a
014
b11010001 e
b11010001 f
b11001001 c
b11001001 b
b11001001 5
#1485000
1a
114
b101 9
03
#1490000
0a
014
b1101000 e
b1101000 f
b1110 c
b1110 b
b1110 5
#1495000
1a
114
b110 9
#1500000
0a
014
b110100 e
b110100 f
b1010010 c
b1010010 b
b1010010 5
#1505000
1a
114
b10011 6
b111 9
b10011 1
b10011 0
b10011 10
b10011 11
#1510000
0a
014
14
b11010 e
b11010 f
b1100100 c
b1100100 b
b1100100 5
#1515000
1a
114
04
b10011 16
b0 9
b111111 12
b111111 13
b111111 8
b111111 7
b111111 2
13
#1520000
0a
014
b10001101 e
b10001101 f
b10010101 c
b10010101 b
b10010101 5
#1525000
1a
114
b1 9
#1530000
0a
014
b11000110 e
b11000110 f
b10111000 c
b10111000 b
b10111000 5
#1535000
1a
114
b10 9
#1540000
0a
014
b11100011 e
b11100011 f
b10101011 c
b10101011 b
b10101011 5
#1545000
1a
114
b11 9
#1550000
0a
014
b11110001 e
b11110001 f
b11001011 c
b11001011 b
b11001011 5
#1555000
1a
114
b100 9
#1560000
0a
014
b11111000 e
b11111000 f
b11001110 c
b11001110 b
b11001110 5
#1565000
1a
114
b101 9
#1570000
0a
014
b11111100 e
b11111100 f
b11011110 c
b11011110 b
b11011110 5
#1575000
1a
114
b110 9
03
#1580000
0a
014
b1111110 e
b1111110 f
b1111110 c
b1111110 b
b1111110 5
#1585000
1a
114
b10100 6
b111 9
b10100 1
b10100 0
b10100 10
b10100 11
#1590000
0a
014
14
b111111 e
b111111 f
b1110111 c
b1110111 b
b1110111 5
#1595000
1a
114
04
b10100 16
b0 9
b1110 12
b1110 13
13
b1110 8
b1110 7
b1110 2
03
#1600000
0a
014
b11111 e
b11111 f
b1110101 c
b1110101 b
b1110101 5
#1605000
1a
114
b1 9
13
#1610000
0a
014
b10001111 e
b10001111 f
b10110101 c
b10110101 b
b10110101 5
#1615000
1a
114
b10 9
#1620000
0a
014
b11000111 e
b11000111 f
b10111001 c
b10111001 b
b10111001 5
#1625000
1a
114
b11 9
#1630000
0a
014
b11100011 e
b11100011 f
b10101011 c
b10101011 b
b10101011 5
#1635000
1a
114
b100 9
03
#1640000
0a
014
b1110001 e
b1110001 f
b1001011 c
b1001011 b
b1001011 5
#1645000
1a
114
b101 9
#1650000
0a
014
b111000 e
b111000 f
b1000110 c
b1000110 b
b1000110 5
#1655000
1a
114
b110 9
#1660000
0a
014
b11100 e
b11100 f
b1010100 c
b1010100 b
b1010100 5
#1665000
1a
114
b10101 6
b111 9
b10101 1
b10101 0
b10101 10
b10101 11
#1670000
0a
014
14
b1110 e
b1110 f
b110100 c
b110100 b
b110100 5
#1675000
1a
114
04
b10101 16
b0 9
b110110 12
b110110 13
b110110 8
b110110 7
b110110 2
#1680000
0a
014
b111 e
b111 f
b110001 c
b110001 b
b110001 5
#1685000
1a
114
b1 9
13
#1690000
0a
014
b10000011 e
b10000011 f
b10100001 c
b10100001 b
b10100001 5
#1695000
1a
114
b10 9
#1700000
0a
014
b11000001 e
b11000001 f
b10001001 c
b10001001 b
b10001001 5
#1705000
1a
114
b11 9
03
#1710000
0a
014
b1100000 e
b1100000 f
b1010 c
b1010 b
b1010 5
#1715000
1a
114
b100 9
13
#1720000
0a
014
b10110000 e
b10110000 f
b11000010 c
b11000010 b
b11000010 5
#1725000
1a
114
b101 9
#1730000
0a
014
b11011000 e
b11011000 f
b11001100 c
b11001100 b
b11001100 5
#1735000
1a
114
b110 9
03
#1740000
0a
014
b1101100 e
b1101100 f
b11110 c
b11110 b
b11110 5
#1745000
1a
114
b10110 6
b111 9
b10110 1
b10110 0
b10110 10
b10110 11
#1750000
0a
014
14
b110110 e
b110110 f
b1110010 c
b1110010 b
b1110010 5
#1755000
1a
114
04
b10110 16
b0 9
b100111 12
b100111 13
b100111 8
b100111 7
b100111 2
13
#1760000
0a
014
b10011011 e
b10011011 f
b11100101 c
b11100101 b
b11100101 5
#1765000
1a
114
b1 9
#1770000
0a
014
b11001101 e
b11001101 f
b10011101 c
b10011101 b
b10011101 5
#1775000
1a
114
b10 9
#1780000
0a
014
b11100110 e
b11100110 f
b10111010 c
b10111010 b
b10111010 5
#1785000
1a
114
b11 9
03
#1790000
0a
014
b1110011 e
b1110011 f
b1101011 c
b1101011 b
b1101011 5
#1795000
1a
114
b100 9
#1800000
0a
014
b111001 e
b111001 f
b1000111 c
b1000111 b
b1000111 5
#1805000
1a
114
b101 9
13
#1810000
0a
014
b10011100 e
b10011100 f
b11010100 c
b11010100 b
b11010100 5
#1815000
1a
114
b110 9
03
#1820000
0a
014
b1001110 e
b1001110 f
b111100 c
b111100 b
b111100 5
#1825000
1a
114
b10111 6
b111 9
b10111 1
b10111 0
b10111 10
b10111 11
#1830000
0a
014
14
b100111 e
b100111 f
b110011 c
b110011 b
b110011 5
#1835000
1a
114
04
b10111 16
b0 9
b1111101 12
b1111101 13
13
b1111101 8
b1111101 7
b1111101 2
#1840000
0a
014
b10010011 e
b10010011 f
b11100001 c
b11100001 b
b11100001 5
#1845000
1a
114
b1 9
03
#1850000
0a
014
b1001001 e
b1001001 f
b1101 c
b1101 b
b1101 5
#1855000
1a
114
b10 9
13
#1860000
0a
014
b10100100 e
b10100100 f
b10010010 c
b10010010 b
b10010010 5
#1865000
1a
114
b11 9
#1870000
0a
014
b11010010 e
b11010010 f
b11101000 c
b11101000 b
b11101000 5
#1875000
1a
114
b100 9
#1880000
0a
014
b11101001 e
b11101001 f
b10001111 c
b10001111 b
b10001111 5
#1885000
1a
114
b101 9
#1890000
0a
014
b11110100 e
b11110100 f
b11011010 c
b11011010 b
b11011010 5
#1895000
1a
114
b110 9
#1900000
0a
014
b11111010 e
b11111010 f
b11101110 c
b11101110 b
b11101110 5
#1905000
1a
114
b11000 6
b111 9
b11000 1
b11000 0
03
b11000 10
b11000 11
#1910000
0a
014
14
b1111101 e
b1111101 f
b1011111 c
b1011111 b
b1011111 5
#1915000
1a
114
04
b11000 16
b0 9
b11111 12
b11111 13
13
b11111 8
b11111 7
b11111 2
#1920000
0a
014
b10111110 e
b10111110 f
b11110110 c
b11110110 b
b11110110 5
#1925000
1a
114
b1 9
#1930000
0a
014
b11011111 e
b11011111 f
b11111101 c
b11111101 b
b11111101 5
#1935000
1a
114
b10 9
#1940000
0a
014
b11101111 e
b11101111 f
b10111111 c
b10111111 b
b10111111 5
#1945000
1a
114
b11 9
#1950000
0a
014
b11110111 e
b11110111 f
b11111011 c
b11111011 b
b11111011 5
#1955000
1a
114
b100 9
#1960000
0a
014
b11111011 e
b11111011 f
b11101111 c
b11101111 b
b11101111 5
#1965000
1a
114
b101 9
03
#1970000
0a
014
b1111101 e
b1111101 f
b1011111 c
b1011111 b
b1011111 5
